<?xml version="1.0" encoding="UTF-8" standalone="no"?>
<!-- Created with Inkscape (http://www.inkscape.org/) -->

<svg
   width="150mm"
   height="150mm"
   viewBox="0 0 150 150"
   version="1.1"
   id="svg5"
   xml:space="preserve"
   inkscape:version="1.2.2 (1:1.2.2+202305151914+b0a8486541)"
   sodipodi:docname="cercle.svg"
   xmlns:inkscape="http://www.inkscape.org/namespaces/inkscape"
   xmlns:sodipodi="http://sodipodi.sourceforge.net/DTD/sodipodi-0.dtd"
   xmlns="http://www.w3.org/2000/svg"
   xmlns:svg="http://www.w3.org/2000/svg"><sodipodi:namedview
     id="namedview7"
     pagecolor="#ffffff"
     bordercolor="#666666"
     borderopacity="1.0"
     inkscape:showpageshadow="2"
     inkscape:pageopacity="0.0"
     inkscape:pagecheckerboard="0"
     inkscape:deskcolor="#d1d1d1"
     inkscape:document-units="mm"
     showgrid="false"
     inkscape:zoom="1.4499167"
     inkscape:cx="181.73458"
     inkscape:cy="284.15426"
     inkscape:window-width="1884"
     inkscape:window-height="1025"
     inkscape:window-x="36"
     inkscape:window-y="0"
     inkscape:window-maximized="1"
     inkscape:current-layer="svg5" /><defs
     id="defs2"><rect
       x="84.226936"
       y="552.41034"
       width="39.50808"
       height="38.440304"
       id="rect1261" /><rect
       x="84.226936"
       y="552.41034"
       width="39.50808"
       height="38.440304"
       id="rect1261-5" /><rect
       x="84.226936"
       y="552.41034"
       width="39.50808"
       height="38.440304"
       id="rect1261-5-2" /><rect
       x="84.226936"
       y="552.41034"
       width="39.50808"
       height="38.440304"
       id="rect1261-5-2-4" /><rect
       x="84.226936"
       y="552.41034"
       width="39.50808"
       height="38.440304"
       id="rect1261-5-2-4-5" /><rect
       x="84.226936"
       y="552.41034"
       width="39.50808"
       height="38.440304"
       id="rect1261-5-2-4-5-2" /><rect
       x="84.226936"
       y="552.41034"
       width="39.50808"
       height="38.440304"
       id="rect1261-5-2-4-5-2-2" /><rect
       x="84.226936"
       y="552.41034"
       width="39.50808"
       height="38.440304"
       id="rect1261-5-2-4-5-2-2-9" /><rect
       x="84.226936"
       y="552.41034"
       width="39.50808"
       height="38.440304"
       id="rect1261-5-2-4-5-2-2-9-3" /><rect
       x="84.226936"
       y="552.41034"
       width="39.50808"
       height="38.440304"
       id="rect1261-5-2-4-5-2-2-9-3-1" /><rect
       x="84.226936"
       y="552.41034"
       width="39.50808"
       height="38.440304"
       id="rect1261-5-2-4-5-2-2-9-3-1-2" /><rect
       x="84.226936"
       y="552.41034"
       width="39.50808"
       height="38.440304"
       id="rect1261-5-2-4-5-2-2-9-3-1-2-9" /><rect
       x="84.226936"
       y="552.41034"
       width="39.50808"
       height="38.440304"
       id="rect1261-5-2-4-5-2-2-9-3-1-2-9-4" /><rect
       x="84.226936"
       y="552.41034"
       width="39.50808"
       height="38.440304"
       id="rect1261-5-2-4-5-2-2-9-3-1-2-9-4-0" /><rect
       x="84.226936"
       y="552.41034"
       width="39.50808"
       height="38.440304"
       id="rect1261-5-2-4-5-2-2-9-3-1-2-9-7" /><rect
       x="84.226936"
       y="552.41034"
       width="39.50808"
       height="38.440304"
       id="rect1261-5-2-4-5-2-2-9-3-1-2-4" /><rect
       x="84.226936"
       y="552.41034"
       width="39.50808"
       height="38.440304"
       id="rect1261-5-2-4-5-2-2-9-3-1-3" /><rect
       x="84.226936"
       y="552.41034"
       width="39.50808"
       height="38.440304"
       id="rect1261-5-2-4-5-2-2-9-3-7" /><rect
       x="84.226936"
       y="552.41034"
       width="39.50808"
       height="38.440304"
       id="rect1261-5-2-4-5-2-2-9-9" /><rect
       x="84.226936"
       y="552.41034"
       width="39.50808"
       height="38.440304"
       id="rect1261-5-2-4-5-2-2-0" /><rect
       x="84.226936"
       y="552.41034"
       width="39.50808"
       height="38.440304"
       id="rect1261-5-2-4-5-2-0" /><rect
       x="84.226936"
       y="552.41034"
       width="39.50808"
       height="38.440304"
       id="rect1261-5-2-4-5-22" /><rect
       x="84.226936"
       y="552.41034"
       width="39.50808"
       height="38.440304"
       id="rect1261-5-2-4-6" /><rect
       x="84.226936"
       y="552.41034"
       width="39.50808"
       height="38.440304"
       id="rect1261-5-2-9" /><rect
       x="84.226936"
       y="552.41034"
       width="39.50808"
       height="38.440304"
       id="rect1261-5-0" /><rect
       x="84.226936"
       y="552.41034"
       width="39.50808"
       height="38.440304"
       id="rect1261-5-0-9" /><rect
       x="84.226936"
       y="552.41034"
       width="39.50808"
       height="38.440304"
       id="rect1261-5-2-9-3" /><rect
       x="84.226936"
       y="552.41034"
       width="39.50808"
       height="38.440304"
       id="rect1261-5-2-4-6-5" /><rect
       x="84.226936"
       y="552.41034"
       width="39.50808"
       height="38.440304"
       id="rect1261-5-2-4-5-22-4" /><rect
       x="84.226936"
       y="552.41034"
       width="39.50808"
       height="38.440304"
       id="rect1261-5-2-4-5-2-0-3" /><rect
       x="84.226936"
       y="552.41034"
       width="39.50808"
       height="38.440304"
       id="rect1261-5-2-4-5-2-2-0-6" /><rect
       x="84.226936"
       y="552.41034"
       width="39.50808"
       height="38.440304"
       id="rect1261-5-2-4-5-2-2-9-9-4" /><rect
       x="84.226936"
       y="552.41034"
       width="39.50808"
       height="38.440304"
       id="rect1261-5-2-4-5-2-2-9-3-7-3" /><rect
       x="84.226936"
       y="552.41034"
       width="39.50808"
       height="38.440304"
       id="rect1261-5-2-4-5-2-2-9-3-1-3-1" /><rect
       x="84.226936"
       y="552.41034"
       width="39.50808"
       height="38.440304"
       id="rect1261-5-2-4-5-2-2-9-3-1-2-4-9" /><rect
       x="84.226936"
       y="552.41034"
       width="39.50808"
       height="38.440304"
       id="rect1261-5-2-4-5-2-2-9-3-1-2-9-7-1" /><rect
       x="84.226936"
       y="552.41034"
       width="39.50808"
       height="38.440304"
       id="rect1261-5-2-4-5-2-2-9-3-1-2-9-4-0-0" /></defs><g
     inkscape:groupmode="layer"
     id="layer2"
     inkscape:label="Cercle"
     style="display:inline"
     transform="translate(-60.610977,-26.719838)"><circle
       style="display:inline;opacity:0.452807;fill:#ffffff;fill-rule:evenodd;stroke:#000000;stroke-width:2.00764;stroke-linejoin:round;stroke-miterlimit:3.6;stroke-dasharray:none"
       id="path429"
       cx="169.31403"
       cy="8.36798"
       r="62.995281"
       transform="rotate(34.043617)" /></g></svg>
