<?xml version="1.0" encoding="UTF-8" standalone="no"?>
<!-- Created with Inkscape (http://www.inkscape.org/) -->

<svg
   width="150mm"
   height="150mm"
   viewBox="0 0 150 150"
   version="1.1"
   id="svg5"
   xml:space="preserve"
   inkscape:version="1.2.2 (1:1.2.2+202305151914+b0a8486541)"
   sodipodi:docname="et_demie.svg"
   xmlns:inkscape="http://www.inkscape.org/namespaces/inkscape"
   xmlns:sodipodi="http://sodipodi.sourceforge.net/DTD/sodipodi-0.dtd"
   xmlns="http://www.w3.org/2000/svg"
   xmlns:svg="http://www.w3.org/2000/svg"><sodipodi:namedview
     id="namedview7"
     pagecolor="#ffffff"
     bordercolor="#666666"
     borderopacity="1.0"
     inkscape:showpageshadow="2"
     inkscape:pageopacity="0.0"
     inkscape:pagecheckerboard="0"
     inkscape:deskcolor="#d1d1d1"
     inkscape:document-units="mm"
     showgrid="false"
     inkscape:zoom="1.4499167"
     inkscape:cx="181.73458"
     inkscape:cy="284.15426"
     inkscape:window-width="1884"
     inkscape:window-height="1025"
     inkscape:window-x="36"
     inkscape:window-y="0"
     inkscape:window-maximized="1"
     inkscape:current-layer="svg5" /><defs
     id="defs2"><rect
       x="84.226936"
       y="552.41034"
       width="39.50808"
       height="38.440304"
       id="rect1261" /><rect
       x="84.226936"
       y="552.41034"
       width="39.50808"
       height="38.440304"
       id="rect1261-5" /><rect
       x="84.226936"
       y="552.41034"
       width="39.50808"
       height="38.440304"
       id="rect1261-5-2" /><rect
       x="84.226936"
       y="552.41034"
       width="39.50808"
       height="38.440304"
       id="rect1261-5-2-4" /><rect
       x="84.226936"
       y="552.41034"
       width="39.50808"
       height="38.440304"
       id="rect1261-5-2-4-5" /><rect
       x="84.226936"
       y="552.41034"
       width="39.50808"
       height="38.440304"
       id="rect1261-5-2-4-5-2" /><rect
       x="84.226936"
       y="552.41034"
       width="39.50808"
       height="38.440304"
       id="rect1261-5-2-4-5-2-2" /><rect
       x="84.226936"
       y="552.41034"
       width="39.50808"
       height="38.440304"
       id="rect1261-5-2-4-5-2-2-9" /><rect
       x="84.226936"
       y="552.41034"
       width="39.50808"
       height="38.440304"
       id="rect1261-5-2-4-5-2-2-9-3" /><rect
       x="84.226936"
       y="552.41034"
       width="39.50808"
       height="38.440304"
       id="rect1261-5-2-4-5-2-2-9-3-1" /><rect
       x="84.226936"
       y="552.41034"
       width="39.50808"
       height="38.440304"
       id="rect1261-5-2-4-5-2-2-9-3-1-2" /><rect
       x="84.226936"
       y="552.41034"
       width="39.50808"
       height="38.440304"
       id="rect1261-5-2-4-5-2-2-9-3-1-2-9" /><rect
       x="84.226936"
       y="552.41034"
       width="39.50808"
       height="38.440304"
       id="rect1261-5-2-4-5-2-2-9-3-1-2-9-4" /><rect
       x="84.226936"
       y="552.41034"
       width="39.50808"
       height="38.440304"
       id="rect1261-5-2-4-5-2-2-9-3-1-2-9-4-0" /><rect
       x="84.226936"
       y="552.41034"
       width="39.50808"
       height="38.440304"
       id="rect1261-5-2-4-5-2-2-9-3-1-2-9-7" /><rect
       x="84.226936"
       y="552.41034"
       width="39.50808"
       height="38.440304"
       id="rect1261-5-2-4-5-2-2-9-3-1-2-4" /><rect
       x="84.226936"
       y="552.41034"
       width="39.50808"
       height="38.440304"
       id="rect1261-5-2-4-5-2-2-9-3-1-3" /><rect
       x="84.226936"
       y="552.41034"
       width="39.50808"
       height="38.440304"
       id="rect1261-5-2-4-5-2-2-9-3-7" /><rect
       x="84.226936"
       y="552.41034"
       width="39.50808"
       height="38.440304"
       id="rect1261-5-2-4-5-2-2-9-9" /><rect
       x="84.226936"
       y="552.41034"
       width="39.50808"
       height="38.440304"
       id="rect1261-5-2-4-5-2-2-0" /><rect
       x="84.226936"
       y="552.41034"
       width="39.50808"
       height="38.440304"
       id="rect1261-5-2-4-5-2-0" /><rect
       x="84.226936"
       y="552.41034"
       width="39.50808"
       height="38.440304"
       id="rect1261-5-2-4-5-22" /><rect
       x="84.226936"
       y="552.41034"
       width="39.50808"
       height="38.440304"
       id="rect1261-5-2-4-6" /><rect
       x="84.226936"
       y="552.41034"
       width="39.50808"
       height="38.440304"
       id="rect1261-5-2-9" /><rect
       x="84.226936"
       y="552.41034"
       width="39.50808"
       height="38.440304"
       id="rect1261-5-0" /><rect
       x="84.226936"
       y="552.41034"
       width="39.50808"
       height="38.440304"
       id="rect1261-5-0-9" /><rect
       x="84.226936"
       y="552.41034"
       width="39.50808"
       height="38.440304"
       id="rect1261-5-2-9-3" /><rect
       x="84.226936"
       y="552.41034"
       width="39.50808"
       height="38.440304"
       id="rect1261-5-2-4-6-5" /><rect
       x="84.226936"
       y="552.41034"
       width="39.50808"
       height="38.440304"
       id="rect1261-5-2-4-5-22-4" /><rect
       x="84.226936"
       y="552.41034"
       width="39.50808"
       height="38.440304"
       id="rect1261-5-2-4-5-2-0-3" /><rect
       x="84.226936"
       y="552.41034"
       width="39.50808"
       height="38.440304"
       id="rect1261-5-2-4-5-2-2-0-6" /><rect
       x="84.226936"
       y="552.41034"
       width="39.50808"
       height="38.440304"
       id="rect1261-5-2-4-5-2-2-9-9-4" /><rect
       x="84.226936"
       y="552.41034"
       width="39.50808"
       height="38.440304"
       id="rect1261-5-2-4-5-2-2-9-3-7-3" /><rect
       x="84.226936"
       y="552.41034"
       width="39.50808"
       height="38.440304"
       id="rect1261-5-2-4-5-2-2-9-3-1-3-1" /><rect
       x="84.226936"
       y="552.41034"
       width="39.50808"
       height="38.440304"
       id="rect1261-5-2-4-5-2-2-9-3-1-2-4-9" /><rect
       x="84.226936"
       y="552.41034"
       width="39.50808"
       height="38.440304"
       id="rect1261-5-2-4-5-2-2-9-3-1-2-9-7-1" /><rect
       x="84.226936"
       y="552.41034"
       width="39.50808"
       height="38.440304"
       id="rect1261-5-2-4-5-2-2-9-3-1-2-9-4-0-0" /></defs><g
     inkscape:groupmode="layer"
     id="layer9"
     inkscape:label="Et demie"
     style="display:inline"><g
       id="g10533"><path
         style="display:inline;opacity:0.3;fill:#66ff00;fill-opacity:1;fill-rule:evenodd;stroke:none;stroke-width:0.499999;stroke-linejoin:round;stroke-miterlimit:3.6"
         id="path5095-2-1"
         sodipodi:type="arc"
         sodipodi:cx="75"
         sodipodi:cy="75"
         sodipodi:rx="63.143414"
         sodipodi:ry="63.143414"
         sodipodi:start="4.712389"
         sodipodi:end="1.5707963"
         sodipodi:arc-type="slice"
         d="M 75,11.856586 A 63.143414,63.143414 0 0 1 138.14341,75 63.143414,63.143414 0 0 1 75,138.14341 V 75 Z" /><g
         aria-label="Et demie"
         id="text10351-5"
         style="font-size:7.05556px;line-height:1.25;display:inline;fill:#008000;stroke-width:0.264583"><path
           d="m 87.678368,90.083939 v -5.050514 h 3.651804 v 0.596002 h -2.983455 v 1.546849 h 2.793974 v 0.592557 h -2.793974 v 1.719104 h 3.100588 v 0.596002 z"
           style="font-family:Arial;-inkscape-font-specification:Arial"
           id="path10509" /><path
           d="m 93.645277,89.529278 0.08957,0.54777 q -0.261827,0.05512 -0.468533,0.05512 -0.33762,0 -0.523655,-0.106798 -0.186035,-0.106798 -0.261828,-0.279053 -0.07579,-0.1757 -0.07579,-0.733806 v -2.104954 h -0.454753 v -0.482314 h 0.454753 v -0.906061 l 0.616673,-0.37207 v 1.278131 h 0.623562 v 0.482314 h -0.623562 v 2.139405 q 0,0.265273 0.03101,0.341065 0.03445,0.07579 0.106798,0.120578 0.07579,0.04479 0.213596,0.04479 0.103353,0 0.272162,-0.02412 z"
           style="font-family:Arial;-inkscape-font-specification:Arial"
           id="path10511" /><path
           d="m 98.585548,90.083939 v -0.461643 q -0.347955,0.544325 -1.023194,0.544325 -0.437528,0 -0.806153,-0.241157 -0.365181,-0.241157 -0.568441,-0.671794 -0.199816,-0.434082 -0.199816,-0.995633 0,-0.547771 0.18259,-0.992188 0.18259,-0.447863 0.547771,-0.685575 0.36518,-0.237712 0.816488,-0.237712 0.330729,0 0.589111,0.141249 0.258383,0.137804 0.420302,0.361736 v -1.812122 h 0.616673 v 5.050514 z m -1.960261,-1.825902 q 0,0.7028 0.296278,1.050755 0.296279,0.347954 0.699355,0.347954 0.406522,0 0.68902,-0.330729 0.285943,-0.334174 0.285943,-1.016304 0,-0.751031 -0.289388,-1.102431 -0.289389,-0.3514 -0.713136,-0.3514 -0.413411,0 -0.692464,0.33762 -0.275608,0.337619 -0.275608,1.064535 z"
           style="font-family:Arial;-inkscape-font-specification:Arial"
           id="path10513" /><path
           d="m 102.64043,88.905715 0.64079,0.07924 q -0.15159,0.561551 -0.56156,0.87161 -0.40996,0.310059 -1.0473,0.310059 -0.80271,0 -1.27469,-0.492649 -0.468534,-0.496094 -0.468534,-1.388374 0,-0.923287 0.475424,-1.433161 0.47542,-0.509875 1.23334,-0.509875 0.73381,0 1.1989,0.49954 0.46509,0.499539 0.46509,1.4056 0,0.05512 -0.003,0.165364 h -2.72852 q 0.0345,0.602892 0.34107,0.923286 0.30661,0.320394 0.76481,0.320394 0.34107,0 0.58222,-0.179145 0.24116,-0.179145 0.38241,-0.571886 z m -2.03606,-1.002523 h 2.04295 q -0.0413,-0.461643 -0.23427,-0.692465 -0.29628,-0.35829 -0.76826,-0.35829 -0.42719,0 -0.72002,0.285943 -0.28939,0.285943 -0.3204,0.764812 z"
           style="font-family:Arial;-inkscape-font-specification:Arial"
           id="path10515" /><path
           d="m 104.05981,90.083939 v -3.658694 h 0.55466 v 0.513319 q 0.17225,-0.268717 0.4582,-0.430637 0.28594,-0.165365 0.65112,-0.165365 0.40652,0 0.6649,0.16881 0.26183,0.16881 0.36863,0.471979 0.43408,-0.640789 1.12999,-0.640789 0.54433,0 0.83716,0.303169 0.29283,0.299724 0.29283,0.926731 v 2.511477 h -0.61667 v -2.304771 q 0,-0.37207 -0.062,-0.53399 -0.0586,-0.165365 -0.21704,-0.265272 -0.15848,-0.09991 -0.37207,-0.09991 -0.38585,0 -0.64079,0.258382 -0.25494,0.254937 -0.25494,0.819933 v 2.125626 h -0.62012 v -2.377118 q 0,-0.413412 -0.15158,-0.620117 -0.15158,-0.206706 -0.49609,-0.206706 -0.26183,0 -0.48576,0.137804 -0.22049,0.137804 -0.3204,0.403076 -0.0999,0.265273 -0.0999,0.764812 v 1.898249 z"
           style="font-family:Arial;-inkscape-font-specification:Arial"
           id="path10517" /><path
           d="m 109.94059,85.746561 v -0.713136 h 0.62012 v 0.713136 z m 0,4.337378 v -3.658694 h 0.62012 v 3.658694 z"
           style="font-family:Arial;-inkscape-font-specification:Arial"
           id="path10519" /><path
           d="m 114.00925,88.905715 0.64079,0.07924 q -0.15159,0.561551 -0.56155,0.87161 -0.40997,0.310059 -1.04731,0.310059 -0.80271,0 -1.27469,-0.492649 -0.46853,-0.496094 -0.46853,-1.388374 0,-0.923287 0.47542,-1.433161 0.47542,-0.509875 1.23335,-0.509875 0.7338,0 1.19889,0.49954 0.46509,0.499539 0.46509,1.4056 0,0.05512 -0.003,0.165364 h -2.72851 q 0.0345,0.602892 0.34106,0.923286 0.30661,0.320394 0.76481,0.320394 0.34107,0 0.58222,-0.179145 0.24116,-0.179145 0.38241,-0.571886 z m -2.03605,-1.002523 h 2.04294 q -0.0413,-0.461643 -0.23427,-0.692465 -0.29628,-0.35829 -0.76825,-0.35829 -0.4272,0 -0.72003,0.285943 -0.28939,0.285943 -0.32039,0.764812 z"
           style="font-family:Arial;-inkscape-font-specification:Arial"
           id="path10521" /></g></g></g></svg>
