<?xml version="1.0" encoding="UTF-8" standalone="no"?>
<!-- Created with Inkscape (http://www.inkscape.org/) -->

<svg
   width="150mm"
   height="150mm"
   viewBox="0 0 150 150"
   version="1.1"
   id="svg5"
   xml:space="preserve"
   inkscape:version="1.2.2 (1:1.2.2+202305151914+b0a8486541)"
   sodipodi:docname="heures_aprem.svg"
   xmlns:inkscape="http://www.inkscape.org/namespaces/inkscape"
   xmlns:sodipodi="http://sodipodi.sourceforge.net/DTD/sodipodi-0.dtd"
   xmlns="http://www.w3.org/2000/svg"
   xmlns:svg="http://www.w3.org/2000/svg"><sodipodi:namedview
     id="namedview7"
     pagecolor="#ffffff"
     bordercolor="#666666"
     borderopacity="1.0"
     inkscape:showpageshadow="2"
     inkscape:pageopacity="0.0"
     inkscape:pagecheckerboard="0"
     inkscape:deskcolor="#d1d1d1"
     inkscape:document-units="mm"
     showgrid="false"
     inkscape:zoom="1.4499167"
     inkscape:cx="283.11972"
     inkscape:cy="283.46457"
     inkscape:window-width="1884"
     inkscape:window-height="1025"
     inkscape:window-x="36"
     inkscape:window-y="0"
     inkscape:window-maximized="1"
     inkscape:current-layer="svg5" /><defs
     id="defs2"><rect
       x="24.205197"
       y="47.650527"
       width="40.687531"
       height="46.406927"
       id="rect1141" /><rect
       x="84.226936"
       y="552.41034"
       width="39.50808"
       height="38.440304"
       id="rect1261" /><rect
       x="84.226936"
       y="552.41034"
       width="39.50808"
       height="38.440304"
       id="rect1261-5" /><rect
       x="84.226936"
       y="552.41034"
       width="39.50808"
       height="38.440304"
       id="rect1261-5-2" /><rect
       x="84.226936"
       y="552.41034"
       width="39.50808"
       height="38.440304"
       id="rect1261-5-2-4" /><rect
       x="84.226936"
       y="552.41034"
       width="39.50808"
       height="38.440304"
       id="rect1261-5-2-4-5" /><rect
       x="84.226936"
       y="552.41034"
       width="39.50808"
       height="38.440304"
       id="rect1261-5-2-4-5-2" /><rect
       x="84.226936"
       y="552.41034"
       width="39.50808"
       height="38.440304"
       id="rect1261-5-2-4-5-2-2" /><rect
       x="84.226936"
       y="552.41034"
       width="39.50808"
       height="38.440304"
       id="rect1261-5-2-4-5-2-2-9" /><rect
       x="84.226936"
       y="552.41034"
       width="39.50808"
       height="38.440304"
       id="rect1261-5-2-4-5-2-2-9-3" /><rect
       x="84.226936"
       y="552.41034"
       width="39.50808"
       height="38.440304"
       id="rect1261-5-2-4-5-2-2-9-3-1" /><rect
       x="84.226936"
       y="552.41034"
       width="39.50808"
       height="38.440304"
       id="rect1261-5-2-4-5-2-2-9-3-1-2" /><rect
       x="84.226936"
       y="552.41034"
       width="39.50808"
       height="38.440304"
       id="rect1261-5-2-4-5-2-2-9-3-1-2-9" /><rect
       x="84.226936"
       y="552.41034"
       width="39.50808"
       height="38.440304"
       id="rect1261-5-2-4-5-2-2-9-3-1-2-9-4" /><rect
       x="84.226936"
       y="552.41034"
       width="39.50808"
       height="38.440304"
       id="rect1261-5-2-4-5-2-2-9-3-1-2-9-4-0" /><rect
       x="84.226936"
       y="552.41034"
       width="39.50808"
       height="38.440304"
       id="rect1261-5-2-4-5-2-2-9-3-1-2-9-7" /><rect
       x="84.226936"
       y="552.41034"
       width="39.50808"
       height="38.440304"
       id="rect1261-5-2-4-5-2-2-9-3-1-2-4" /><rect
       x="84.226936"
       y="552.41034"
       width="39.50808"
       height="38.440304"
       id="rect1261-5-2-4-5-2-2-9-3-1-3" /><rect
       x="84.226936"
       y="552.41034"
       width="39.50808"
       height="38.440304"
       id="rect1261-5-2-4-5-2-2-9-3-7" /><rect
       x="84.226936"
       y="552.41034"
       width="39.50808"
       height="38.440304"
       id="rect1261-5-2-4-5-2-2-9-9" /><rect
       x="84.226936"
       y="552.41034"
       width="39.50808"
       height="38.440304"
       id="rect1261-5-2-4-5-2-2-0" /><rect
       x="84.226936"
       y="552.41034"
       width="39.50808"
       height="38.440304"
       id="rect1261-5-2-4-5-2-0" /><rect
       x="84.226936"
       y="552.41034"
       width="39.50808"
       height="38.440304"
       id="rect1261-5-2-4-5-22" /><rect
       x="84.226936"
       y="552.41034"
       width="39.50808"
       height="38.440304"
       id="rect1261-5-2-4-6" /><rect
       x="84.226936"
       y="552.41034"
       width="39.50808"
       height="38.440304"
       id="rect1261-5-2-9" /><rect
       x="84.226936"
       y="552.41034"
       width="39.50808"
       height="38.440304"
       id="rect1261-5-0" /><rect
       x="84.226936"
       y="552.41034"
       width="39.50808"
       height="38.440304"
       id="rect1261-5-0-9" /><rect
       x="84.226936"
       y="552.41034"
       width="39.50808"
       height="38.440304"
       id="rect1261-5-2-9-3" /><rect
       x="84.226936"
       y="552.41034"
       width="39.50808"
       height="38.440304"
       id="rect1261-5-2-4-6-5" /><rect
       x="84.226936"
       y="552.41034"
       width="39.50808"
       height="38.440304"
       id="rect1261-5-2-4-5-22-4" /><rect
       x="84.226936"
       y="552.41034"
       width="39.50808"
       height="38.440304"
       id="rect1261-5-2-4-5-2-0-3" /><rect
       x="84.226936"
       y="552.41034"
       width="39.50808"
       height="38.440304"
       id="rect1261-5-2-4-5-2-2-0-6" /><rect
       x="84.226936"
       y="552.41034"
       width="39.50808"
       height="38.440304"
       id="rect1261-5-2-4-5-2-2-9-9-4" /><rect
       x="84.226936"
       y="552.41034"
       width="39.50808"
       height="38.440304"
       id="rect1261-5-2-4-5-2-2-9-3-7-3" /><rect
       x="84.226936"
       y="552.41034"
       width="39.50808"
       height="38.440304"
       id="rect1261-5-2-4-5-2-2-9-3-1-3-1" /><rect
       x="84.226936"
       y="552.41034"
       width="39.50808"
       height="38.440304"
       id="rect1261-5-2-4-5-2-2-9-3-1-2-4-9" /><rect
       x="84.226936"
       y="552.41034"
       width="39.50808"
       height="38.440304"
       id="rect1261-5-2-4-5-2-2-9-3-1-2-9-7-1" /><rect
       x="84.226936"
       y="552.41034"
       width="39.50808"
       height="38.440304"
       id="rect1261-5-2-4-5-2-2-9-3-1-2-9-4-0-0" /><rect
       x="24.205196"
       y="47.650528"
       width="40.687531"
       height="46.406925"
       id="rect1141-7" /><rect
       x="24.205196"
       y="47.650528"
       width="40.687531"
       height="46.406925"
       id="rect1141-7-9" /><rect
       x="24.205196"
       y="47.650528"
       width="56.313303"
       height="38.794393"
       id="rect1141-7-2" /><rect
       x="24.205196"
       y="47.650528"
       width="40.687531"
       height="46.406925"
       id="rect1141-7-97" /><rect
       x="24.205196"
       y="47.650528"
       width="40.687531"
       height="46.406925"
       id="rect1141-7-97-6" /><rect
       x="24.205196"
       y="47.650528"
       width="40.687531"
       height="46.406925"
       id="rect1141-7-97-2" /><rect
       x="24.205196"
       y="47.650528"
       width="40.687531"
       height="46.406925"
       id="rect1141-7-3" /><rect
       x="24.205196"
       y="47.650528"
       width="40.687531"
       height="46.406925"
       id="rect1141-7-94" /><rect
       x="24.205196"
       y="47.650528"
       width="40.687531"
       height="46.406925"
       id="rect1141-7-8" /><rect
       x="24.205196"
       y="47.650528"
       width="40.687531"
       height="46.406925"
       id="rect1141-7-5" /><rect
       x="24.205196"
       y="47.650528"
       width="40.687531"
       height="46.406925"
       id="rect1141-7-36" /><rect
       x="24.205196"
       y="47.650528"
       width="40.687531"
       height="46.406925"
       id="rect1141-7-97-2-6" /></defs><g
     inkscape:groupmode="layer"
     id="layer6"
     inkscape:label="Heures aprèm"
     style="display:inline"
     transform="translate(-60.610977,-26.719838)"><g
       id="g2517"
       transform="translate(-92.046643,70.665902)"
       style="display:inline;fill:#2a7fff"
       inkscape:label="groupe_heures_aprèm"><g
         aria-label="13"
         transform="matrix(0.26458333,0,0,0.26458333,220.10965,-153.44803)"
         id="text1259-0-3"
         style="font-size:24px;line-height:1.25;white-space:pre;shape-inside:url(#rect1261-5-0);display:inline"
         inkscape:label="13"
         inkscape:transform-center-x="60.847041"
         inkscape:transform-center-y="-97.900168"><path
           d="m 99.574219,574.02826 h -2.109375 v -13.4414 q -0.761719,0.72656 -2.003907,1.45312 -1.230468,0.72656 -2.214843,1.08984 v -2.03906 q 1.769531,-0.83203 3.09375,-2.01562 1.324218,-1.1836 1.875,-2.29688 h 1.359375 z"
           style="font-family:Arial;-inkscape-font-specification:Arial;text-align:center;text-anchor:middle"
           id="path486" /><path
           d="m 104.98828,569.49311 2.10938,-0.28125 q 0.36328,1.79296 1.23047,2.58984 0.8789,0.78516 2.13281,0.78516 1.48828,0 2.50781,-1.03125 Q 114,570.52436 114,569.00092 q 0,-1.45313 -0.94922,-2.39063 -0.94922,-0.94922 -2.41406,-0.94922 -0.59766,0 -1.48828,0.23438 l 0.23437,-1.85156 q 0.21094,0.0234 0.33985,0.0234 1.34765,0 2.42578,-0.70312 1.07812,-0.70313 1.07812,-2.16797 0,-1.16016 -0.78515,-1.92187 -0.78516,-0.76172 -2.02735,-0.76172 -1.23047,0 -2.05078,0.77343 -0.82031,0.77344 -1.05469,2.32032 l -2.10937,-0.375 q 0.38672,-2.1211 1.75781,-3.28125 1.3711,-1.17188 3.41016,-1.17188 1.40625,0 2.58984,0.60938 1.1836,0.59765 1.80469,1.64062 0.63281,1.04297 0.63281,2.21485 0,1.11328 -0.59765,2.02734 -0.59766,0.91406 -1.76954,1.45312 1.52344,0.35157 2.36719,1.46485 0.84375,1.10156 0.84375,2.76562 0,2.25 -1.64062,3.82032 -1.64063,1.55859 -4.14844,1.55859 -2.26172,0 -3.76172,-1.34766 -1.48828,-1.34765 -1.69922,-3.49218 z"
           style="font-family:Arial;-inkscape-font-specification:Arial;text-align:center;text-anchor:middle"
           id="path488" /></g><g
         aria-label="14"
         transform="matrix(0.26458333,0,0,0.26458333,234.19206,-138.54931)"
         id="text1259-0-6-5"
         style="font-size:24px;line-height:1.25;white-space:pre;shape-inside:url(#rect1261-5-2-9);display:inline"
         inkscape:label="14"
         inkscape:transform-center-x="60.847041"
         inkscape:transform-center-y="-97.900168"><path
           d="m 99.574219,574.02826 h -2.109375 v -13.4414 q -0.761719,0.72656 -2.003907,1.45312 -1.230468,0.72656 -2.214843,1.08984 v -2.03906 q 1.769531,-0.83203 3.09375,-2.01562 1.324218,-1.1836 1.875,-2.29688 h 1.359375 z"
           style="font-family:Arial;-inkscape-font-specification:Arial;text-align:center;text-anchor:middle"
           id="path491" /><path
           d="m 111.73828,574.02826 v -4.11328 h -7.45312 v -1.93359 l 7.83984,-11.13282 h 1.72266 v 11.13282 h 2.32031 v 1.93359 h -2.32031 v 4.11328 z m 0,-6.04687 v -7.7461 l -5.3789,7.7461 z"
           style="font-family:Arial;-inkscape-font-specification:Arial;text-align:center;text-anchor:middle"
           id="path493" /></g><g
         aria-label="15"
         transform="matrix(0.26458333,0,0,0.26458333,239.72539,-118.25246)"
         id="text1259-0-6-8-5"
         style="font-size:24px;line-height:1.25;white-space:pre;shape-inside:url(#rect1261-5-2-4-6);display:inline"
         inkscape:label="15"
         inkscape:transform-center-x="60.847041"
         inkscape:transform-center-y="-97.900168"><path
           d="m 99.574219,574.02826 h -2.109375 v -13.4414 q -0.761719,0.72656 -2.003907,1.45312 -1.230468,0.72656 -2.214843,1.08984 v -2.03906 q 1.769531,-0.83203 3.09375,-2.01562 1.324218,-1.1836 1.875,-2.29688 h 1.359375 z"
           style="font-family:Arial;-inkscape-font-specification:Arial;text-align:center;text-anchor:middle"
           id="path496" /><path
           d="m 104.97656,569.52826 2.21485,-0.1875 q 0.24609,1.61719 1.13672,2.4375 0.90234,0.8086 2.16796,0.8086 1.52344,0 2.57813,-1.14844 1.05469,-1.14844 1.05469,-3.04688 0,-1.80468 -1.01953,-2.84765 -1.00782,-1.04297 -2.64844,-1.04297 -1.01953,0 -1.83985,0.46875 -0.82031,0.45703 -1.28906,1.19531 l -1.98047,-0.25781 1.66407,-8.82422 h 8.54296 v 2.01562 h -6.85546 l -0.92579,4.61719 q 1.54688,-1.07812 3.2461,-1.07812 2.25,0 3.79687,1.55859 1.54688,1.55859 1.54688,4.00781 0,2.33203 -1.35938,4.03125 -1.65234,2.08594 -4.51172,2.08594 -2.34375,0 -3.83203,-1.3125 -1.47656,-1.3125 -1.6875,-3.48047 z"
           style="font-family:Arial;-inkscape-font-specification:Arial;text-align:center;text-anchor:middle"
           id="path498" /></g><g
         aria-label="16"
         transform="matrix(0.26458333,0,0,0.26458333,234.68097,-98.674597)"
         id="text1259-0-6-8-6-8"
         style="font-size:24px;line-height:1.25;white-space:pre;shape-inside:url(#rect1261-5-2-4-5-22);display:inline"
         inkscape:label="16"
         inkscape:transform-center-x="60.847041"
         inkscape:transform-center-y="-97.900168"><path
           d="m 99.574219,574.02826 h -2.109375 v -13.4414 q -0.761719,0.72656 -2.003907,1.45312 -1.230468,0.72656 -2.214843,1.08984 v -2.03906 q 1.769531,-0.83203 3.09375,-2.01562 1.324218,-1.1836 1.875,-2.29688 h 1.359375 z"
           style="font-family:Arial;-inkscape-font-specification:Arial;text-align:center;text-anchor:middle"
           id="path501" /><path
           d="m 115.92188,561.05561 -2.09766,0.16406 q -0.28125,-1.24219 -0.79688,-1.80469 -0.85546,-0.90234 -2.10937,-0.90234 -1.00781,0 -1.76953,0.5625 -0.9961,0.72656 -1.57031,2.12109 -0.57422,1.39453 -0.59766,3.97266 0.76172,-1.16016 1.86328,-1.72266 1.10156,-0.5625 2.30859,-0.5625 2.10938,0 3.58594,1.55859 1.48828,1.54688 1.48828,4.00782 0,1.61718 -0.70312,3.01172 -0.69141,1.38281 -1.91016,2.12109 -1.21875,0.73828 -2.76562,0.73828 -2.63672,0 -4.30078,-1.93359 -1.66407,-1.94532 -1.66407,-6.39844 0,-4.98047 1.83985,-7.24219 1.60547,-1.96875 4.32422,-1.96875 2.02734,0 3.3164,1.13672 1.30078,1.13672 1.5586,3.14063 z m -8.61329,7.40625 q 0,1.08984 0.45704,2.08593 0.46875,0.9961 1.30078,1.52344 0.83203,0.51563 1.74609,0.51563 1.33594,0 2.29688,-1.07813 0.96093,-1.07812 0.96093,-2.92969 0,-1.78125 -0.94922,-2.80078 -0.94921,-1.03125 -2.39062,-1.03125 -1.42969,0 -2.42578,1.03125 -0.9961,1.01953 -0.9961,2.6836 z"
           style="font-family:Arial;-inkscape-font-specification:Arial;text-align:center;text-anchor:middle"
           id="path503" /></g><g
         aria-label="17"
         transform="matrix(0.26458333,0,0,0.26458333,221.12618,-83.724884)"
         id="text1259-0-6-8-6-5-7"
         style="font-size:24px;line-height:1.25;white-space:pre;shape-inside:url(#rect1261-5-2-4-5-2-0);display:inline"
         inkscape:label="17"
         inkscape:transform-center-x="60.847041"
         inkscape:transform-center-y="-97.900168"><path
           d="m 99.574219,574.02826 h -2.109375 v -13.4414 q -0.761719,0.72656 -2.003907,1.45312 -1.230468,0.72656 -2.214843,1.08984 v -2.03906 q 1.769531,-0.83203 3.09375,-2.01562 1.324218,-1.1836 1.875,-2.29688 h 1.359375 z"
           style="font-family:Arial;-inkscape-font-specification:Arial;text-align:center;text-anchor:middle"
           id="path506" /><path
           d="m 105.11719,559.09857 v -2.02734 h 11.12109 v 1.64063 q -1.64062,1.74609 -3.25781,4.64062 -1.60547,2.89453 -2.48438,5.95313 -0.63281,2.15625 -0.80859,4.72265 h -2.16797 q 0.0352,-2.02734 0.79688,-4.89844 0.76172,-2.87109 2.17968,-5.53125 1.42969,-2.67187 3.03516,-4.5 z"
           style="font-family:Arial;-inkscape-font-specification:Arial;text-align:center;text-anchor:middle"
           id="path508" /></g><g
         aria-label="18"
         transform="matrix(0.26458333,0,0,0.26458333,199.75122,-77.496957)"
         id="text1259-0-6-8-6-5-6-17"
         style="font-size:24px;line-height:1.25;white-space:pre;shape-inside:url(#rect1261-5-2-4-5-2-2-0);display:inline"
         inkscape:label="18"
         inkscape:transform-center-x="60.847041"
         inkscape:transform-center-y="-97.900168"><path
           d="m 99.574219,574.02826 h -2.109375 v -13.4414 q -0.761719,0.72656 -2.003907,1.45312 -1.230468,0.72656 -2.214843,1.08984 v -2.03906 q 1.769531,-0.83203 3.09375,-2.01562 1.324218,-1.1836 1.875,-2.29688 h 1.359375 z"
           style="font-family:Arial;-inkscape-font-specification:Arial;text-align:center;text-anchor:middle"
           id="path511" /><path
           d="m 108.22266,564.71186 q -1.3125,-0.48047 -1.94532,-1.3711 -0.63281,-0.89062 -0.63281,-2.13281 0,-1.875 1.34766,-3.15234 1.34765,-1.27735 3.58594,-1.27735 2.25,0 3.62109,1.3125 1.37109,1.30078 1.37109,3.17578 0,1.19532 -0.63281,2.08594 -0.62109,0.87891 -1.89844,1.35938 1.58203,0.51562 2.40235,1.66406 0.83203,1.14844 0.83203,2.74219 0,2.20312 -1.5586,3.70312 -1.55859,1.5 -4.10156,1.5 -2.54297,0 -4.10156,-1.5 -1.55859,-1.51172 -1.55859,-3.76172 0,-1.67578 0.84375,-2.80078 0.85546,-1.13672 2.42578,-1.54687 z m -0.42188,-3.57422 q 0,1.21875 0.78516,1.99218 0.78515,0.77344 2.03906,0.77344 1.21875,0 1.99219,-0.76172 0.78515,-0.77343 0.78515,-1.88672 0,-1.16015 -0.80859,-1.94531 -0.79687,-0.79687 -1.99219,-0.79687 -1.20703,0 -2.0039,0.77343 -0.79688,0.77344 -0.79688,1.85157 z m -0.67969,7.93359 q 0,0.90234 0.42188,1.74609 0.43359,0.84375 1.27734,1.3125 0.84375,0.45704 1.81641,0.45704 1.51172,0 2.49609,-0.97266 0.98438,-0.97266 0.98438,-2.47266 0,-1.52343 -1.01953,-2.51953 -1.00782,-0.99609 -2.53125,-0.99609 -1.48828,0 -2.47266,0.98437 -0.97266,0.98438 -0.97266,2.46094 z"
           style="font-family:Arial;-inkscape-font-specification:Arial;text-align:center;text-anchor:middle"
           id="path513" /></g><g
         aria-label="19"
         transform="matrix(0.26458333,0,0,0.26458333,180.96863,-84.125886)"
         id="text1259-0-6-8-6-5-6-1-0"
         style="font-size:24px;line-height:1.25;white-space:pre;shape-inside:url(#rect1261-5-2-4-5-2-2-9-9);display:inline"
         inkscape:label="19"
         inkscape:transform-center-x="60.847041"
         inkscape:transform-center-y="-97.900168"><path
           d="m 99.574219,574.02826 h -2.109375 v -13.4414 q -0.761719,0.72656 -2.003907,1.45312 -1.230468,0.72656 -2.214843,1.08984 v -2.03906 q 1.769531,-0.83203 3.09375,-2.01562 1.324218,-1.1836 1.875,-2.29688 h 1.359375 z"
           style="font-family:Arial;-inkscape-font-specification:Arial;text-align:center;text-anchor:middle"
           id="path516" /><path
           d="m 105.29297,570.05561 2.02734,-0.1875 q 0.25782,1.42968 0.98438,2.07421 0.72656,0.64454 1.86328,0.64454 0.97266,0 1.69922,-0.44532 0.73828,-0.44531 1.20703,-1.18359 0.46875,-0.75 0.78516,-2.01563 0.3164,-1.26562 0.3164,-2.57812 0,-0.14063 -0.0117,-0.42188 -0.63281,1.00782 -1.73437,1.64063 -1.08985,0.62109 -2.36719,0.62109 -2.13281,0 -3.60937,-1.54687 -1.47657,-1.54688 -1.47657,-4.07813 0,-2.61328 1.53516,-4.20703 1.54687,-1.59375 3.86719,-1.59375 1.67578,0 3.05859,0.90235 1.39453,0.90234 2.10938,2.57812 0.72656,1.66406 0.72656,4.82813 0,3.29296 -0.71485,5.25 -0.71484,1.94531 -2.13281,2.96484 -1.40625,1.01953 -3.30469,1.01953 -2.01562,0 -3.29296,-1.11328 -1.27735,-1.125 -1.53516,-3.15234 z m 8.63672,-7.58204 q 0,-1.8164 -0.97266,-2.88281 -0.96094,-1.0664 -2.32031,-1.0664 -1.40625,0 -2.44922,1.14843 -1.04297,1.14844 -1.04297,2.97657 0,1.64062 0.98438,2.67187 0.99609,1.01953 2.44922,1.01953 1.46484,0 2.40234,-1.01953 0.94922,-1.03125 0.94922,-2.84766 z"
           style="font-family:Arial;-inkscape-font-specification:Arial;text-align:center;text-anchor:middle"
           id="path518" /></g><g
         aria-label="20"
         transform="matrix(0.26458333,0,0,0.26458333,169.04559,-99.147574)"
         id="text1259-0-6-8-6-5-6-1-3-6"
         style="font-size:24px;line-height:1.25;white-space:pre;shape-inside:url(#rect1261-5-2-4-5-2-2-9-3-7);display:inline"
         inkscape:label="20"
         inkscape:transform-center-x="60.847041"
         inkscape:transform-center-y="-97.900168"><path
           d="m 102.71484,572.00092 v 2.02734 H 91.359375 q -0.02344,-0.76172 0.246094,-1.46484 0.433593,-1.16016 1.382812,-2.28516 0.960938,-1.125 2.765625,-2.60156 2.800781,-2.29688 3.785156,-3.63281 0.984378,-1.34766 0.984378,-2.54297 0,-1.25391 -0.902346,-2.10938 -0.890625,-0.86718 -2.332032,-0.86718 -1.523437,0 -2.4375,0.91406 -0.914062,0.91406 -0.925781,2.53125 l -2.167969,-0.22266 q 0.222657,-2.42578 1.675782,-3.6914 1.453125,-1.27735 3.902343,-1.27735 2.472657,0 3.914063,1.3711 1.44141,1.37109 1.44141,3.39843 0,1.03125 -0.42188,2.02735 -0.42187,0.99609 -1.40625,2.09765 -0.972655,1.10157 -3.246093,3.02344 -1.898437,1.59375 -2.4375,2.16797 -0.539062,0.5625 -0.890625,1.13672 z"
           style="font-family:Arial;-inkscape-font-specification:Arial;text-align:center;text-anchor:middle"
           id="path521" /><path
           d="m 104.97656,565.55561 q 0,-3.04688 0.6211,-4.89844 0.63281,-1.86328 1.86328,-2.8711 1.24219,-1.00781 3.11719,-1.00781 1.38281,0 2.42578,0.5625 1.04297,0.55078 1.72265,1.60547 0.67969,1.04297 1.06641,2.55469 0.38672,1.5 0.38672,4.05469 0,3.02343 -0.6211,4.88671 -0.62109,1.85157 -1.86328,2.8711 -1.23047,1.00781 -3.11718,1.00781 -2.48438,0 -3.90235,-1.78125 -1.69922,-2.14453 -1.69922,-6.98437 z m 2.16797,0 q 0,4.23046 0.98438,5.63671 0.99609,1.39454 2.44922,1.39454 1.45312,0 2.4375,-1.40625 0.99609,-1.40625 0.99609,-5.625 0,-4.24219 -0.99609,-5.63672 -0.98438,-1.39453 -2.46094,-1.39453 -1.45313,0 -2.32031,1.23046 -1.08985,1.57032 -1.08985,5.80079 z"
           style="font-family:Arial;-inkscape-font-specification:Arial;text-align:center;text-anchor:middle"
           id="path523" /></g><g
         aria-label="21"
         transform="matrix(0.26458333,0,0,0.26458333,161.6877,-118.5084)"
         id="text1259-0-6-8-6-5-6-1-3-5-0"
         style="font-size:24px;line-height:1.25;white-space:pre;shape-inside:url(#rect1261-5-2-4-5-2-2-9-3-1-3);display:inline"
         inkscape:label="21"
         inkscape:transform-center-x="60.847041"
         inkscape:transform-center-y="-97.900168"><path
           d="m 102.71484,572.00092 v 2.02734 H 91.359375 q -0.02344,-0.76172 0.246094,-1.46484 0.433593,-1.16016 1.382812,-2.28516 0.960938,-1.125 2.765625,-2.60156 2.800781,-2.29688 3.785156,-3.63281 0.984378,-1.34766 0.984378,-2.54297 0,-1.25391 -0.902346,-2.10938 -0.890625,-0.86718 -2.332032,-0.86718 -1.523437,0 -2.4375,0.91406 -0.914062,0.91406 -0.925781,2.53125 l -2.167969,-0.22266 q 0.222657,-2.42578 1.675782,-3.6914 1.453125,-1.27735 3.902343,-1.27735 2.472657,0 3.914063,1.3711 1.44141,1.37109 1.44141,3.39843 0,1.03125 -0.42188,2.02735 -0.42187,0.99609 -1.40625,2.09765 -0.972655,1.10157 -3.246093,3.02344 -1.898437,1.59375 -2.4375,2.16797 -0.539062,0.5625 -0.890625,1.13672 z"
           style="font-family:Arial;-inkscape-font-specification:Arial;text-align:center;text-anchor:middle"
           id="path526" /><path
           d="m 112.92188,574.02826 h -2.10938 v -13.4414 q -0.76172,0.72656 -2.00391,1.45312 -1.23046,0.72656 -2.21484,1.08984 v -2.03906 q 1.76953,-0.83203 3.09375,-2.01562 1.32422,-1.1836 1.875,-2.29688 h 1.35938 z"
           style="font-family:Arial;-inkscape-font-specification:Arial;text-align:center;text-anchor:middle"
           id="path528" /></g><g
         aria-label="22"
         transform="matrix(0.26458333,0,0,0.26458333,168.48785,-138.95714)"
         id="text1259-0-6-8-6-5-6-1-3-5-6-41"
         style="font-size:24px;line-height:1.25;white-space:pre;shape-inside:url(#rect1261-5-2-4-5-2-2-9-3-1-2-4);display:inline"
         inkscape:label="22"
         inkscape:transform-center-x="60.847041"
         inkscape:transform-center-y="-97.900168"><path
           d="m 102.71484,572.00092 v 2.02734 H 91.359375 q -0.02344,-0.76172 0.246094,-1.46484 0.433593,-1.16016 1.382812,-2.28516 0.960938,-1.125 2.765625,-2.60156 2.800781,-2.29688 3.785156,-3.63281 0.984378,-1.34766 0.984378,-2.54297 0,-1.25391 -0.902346,-2.10938 -0.890625,-0.86718 -2.332032,-0.86718 -1.523437,0 -2.4375,0.91406 -0.914062,0.91406 -0.925781,2.53125 l -2.167969,-0.22266 q 0.222657,-2.42578 1.675782,-3.6914 1.453125,-1.27735 3.902343,-1.27735 2.472657,0 3.914063,1.3711 1.44141,1.37109 1.44141,3.39843 0,1.03125 -0.42188,2.02735 -0.42187,0.99609 -1.40625,2.09765 -0.972655,1.10157 -3.246093,3.02344 -1.898437,1.59375 -2.4375,2.16797 -0.539062,0.5625 -0.890625,1.13672 z"
           style="font-family:Arial;-inkscape-font-specification:Arial;text-align:center;text-anchor:middle"
           id="path531" /><path
           d="m 116.0625,572.00092 v 2.02734 h -11.35547 q -0.0234,-0.76172 0.2461,-1.46484 0.43359,-1.16016 1.38281,-2.28516 0.96094,-1.125 2.76562,-2.60156 2.80078,-2.29688 3.78516,-3.63281 0.98437,-1.34766 0.98437,-2.54297 0,-1.25391 -0.90234,-2.10938 -0.89062,-0.86718 -2.33203,-0.86718 -1.52344,0 -2.4375,0.91406 -0.91406,0.91406 -0.92578,2.53125 l -2.16797,-0.22266 q 0.22266,-2.42578 1.67578,-3.6914 1.45313,-1.27735 3.90234,-1.27735 2.47266,0 3.91407,1.3711 1.4414,1.37109 1.4414,3.39843 0,1.03125 -0.42187,2.02735 -0.42188,0.99609 -1.40625,2.09765 -0.97266,1.10157 -3.2461,3.02344 -1.89843,1.59375 -2.4375,2.16797 -0.53906,0.5625 -0.89062,1.13672 z"
           style="font-family:Arial;-inkscape-font-specification:Arial;text-align:center;text-anchor:middle"
           id="path533" /></g><g
         aria-label="23"
         transform="matrix(0.26458333,0,0,0.26458333,182.15962,-153.1913)"
         id="text1259-0-6-8-6-5-6-1-3-5-6-4-3"
         style="font-size:24px;line-height:1.25;white-space:pre;shape-inside:url(#rect1261-5-2-4-5-2-2-9-3-1-2-9-7);display:inline"
         inkscape:label="23"
         inkscape:transform-center-x="60.847041"
         inkscape:transform-center-y="-97.900168"><path
           d="m 102.71484,572.00092 v 2.02734 H 91.359375 q -0.02344,-0.76172 0.246094,-1.46484 0.433593,-1.16016 1.382812,-2.28516 0.960938,-1.125 2.765625,-2.60156 2.800781,-2.29688 3.785156,-3.63281 0.984378,-1.34766 0.984378,-2.54297 0,-1.25391 -0.902346,-2.10938 -0.890625,-0.86718 -2.332032,-0.86718 -1.523437,0 -2.4375,0.91406 -0.914062,0.91406 -0.925781,2.53125 l -2.167969,-0.22266 q 0.222657,-2.42578 1.675782,-3.6914 1.453125,-1.27735 3.902343,-1.27735 2.472657,0 3.914063,1.3711 1.44141,1.37109 1.44141,3.39843 0,1.03125 -0.42188,2.02735 -0.42187,0.99609 -1.40625,2.09765 -0.972655,1.10157 -3.246093,3.02344 -1.898437,1.59375 -2.4375,2.16797 -0.539062,0.5625 -0.890625,1.13672 z"
           style="font-family:Arial;-inkscape-font-specification:Arial;text-align:center;text-anchor:middle"
           id="path536" /><path
           d="m 104.98828,569.49311 2.10938,-0.28125 q 0.36328,1.79296 1.23047,2.58984 0.8789,0.78516 2.13281,0.78516 1.48828,0 2.50781,-1.03125 Q 114,570.52436 114,569.00092 q 0,-1.45313 -0.94922,-2.39063 -0.94922,-0.94922 -2.41406,-0.94922 -0.59766,0 -1.48828,0.23438 l 0.23437,-1.85156 q 0.21094,0.0234 0.33985,0.0234 1.34765,0 2.42578,-0.70312 1.07812,-0.70313 1.07812,-2.16797 0,-1.16016 -0.78515,-1.92187 -0.78516,-0.76172 -2.02735,-0.76172 -1.23047,0 -2.05078,0.77343 -0.82031,0.77344 -1.05469,2.32032 l -2.10937,-0.375 q 0.38672,-2.1211 1.75781,-3.28125 1.3711,-1.17188 3.41016,-1.17188 1.40625,0 2.58984,0.60938 1.1836,0.59765 1.80469,1.64062 0.63281,1.04297 0.63281,2.21485 0,1.11328 -0.59765,2.02734 -0.59766,0.91406 -1.76954,1.45312 1.52344,0.35157 2.36719,1.46485 0.84375,1.10156 0.84375,2.76562 0,2.25 -1.64062,3.82032 -1.64063,1.55859 -4.14844,1.55859 -2.26172,0 -3.76172,-1.34766 -1.48828,-1.34765 -1.69922,-3.49218 z"
           style="font-family:Arial;-inkscape-font-specification:Arial;text-align:center;text-anchor:middle"
           id="path538" /></g><g
         aria-label="24"
         transform="matrix(0.26458333,0,0,0.26458333,200.40992,-159.66524)"
         id="text1259-0-6-8-6-5-6-1-3-5-6-4-6-0"
         style="font-size:24px;line-height:1.25;white-space:pre;shape-inside:url(#rect1261-5-2-4-5-2-2-9-3-1-2-9-4-0);display:inline"
         inkscape:label="24"
         inkscape:transform-center-x="60.847041"
         inkscape:transform-center-y="-97.900168"><path
           d="m 102.71484,572.00092 v 2.02734 H 91.359375 q -0.02344,-0.76172 0.246094,-1.46484 0.433593,-1.16016 1.382812,-2.28516 0.960938,-1.125 2.765625,-2.60156 2.800781,-2.29688 3.785156,-3.63281 0.984378,-1.34766 0.984378,-2.54297 0,-1.25391 -0.902346,-2.10938 -0.890625,-0.86718 -2.332032,-0.86718 -1.523437,0 -2.4375,0.91406 -0.914062,0.91406 -0.925781,2.53125 l -2.167969,-0.22266 q 0.222657,-2.42578 1.675782,-3.6914 1.453125,-1.27735 3.902343,-1.27735 2.472657,0 3.914063,1.3711 1.44141,1.37109 1.44141,3.39843 0,1.03125 -0.42188,2.02735 -0.42187,0.99609 -1.40625,2.09765 -0.972655,1.10157 -3.246093,3.02344 -1.898437,1.59375 -2.4375,2.16797 -0.539062,0.5625 -0.890625,1.13672 z"
           style="font-family:Arial;-inkscape-font-specification:Arial;text-align:center;text-anchor:middle"
           id="path541" /><path
           d="m 111.73828,574.02826 v -4.11328 h -7.45312 v -1.93359 l 7.83984,-11.13282 h 1.72266 v 11.13282 h 2.32031 v 1.93359 h -2.32031 v 4.11328 z m 0,-6.04687 v -7.7461 l -5.3789,7.7461 z"
           style="font-family:Arial;-inkscape-font-specification:Arial;text-align:center;text-anchor:middle"
           id="path543" /></g></g></g></svg>
